{
    "itemTemplates": [
        {
            "id": 1040000001,
            "type": 1,
            "name": 1000000014,
            "desc": 1000000015,
            "value": 0.10000000149011612,
            "time": 10,
            "price": 10000
        },
        {
            "id": 1040000002,
            "type": 2,
            "name": 1000000016,
            "desc": 1000000017,
            "value": 0.10000000149011612,
            "time": 10,
            "price": 20000
        }
    ]
}