{
    "stageTemplates": [
        {
            "id": 1020000001,
            "type": 1,
            "kind": 1,
            "time": 60.0,
            "enemyId": 1030000001
        },
        {
            "id": 1020000002,
            "type": 1,
            "kind": 2,
            "time": 60.0,
            "enemyId": 1030000001
        },
        {
            "id": 1020000003,
            "type": 1,
            "kind": 3,
            "time": 60.0,
            "enemyId": 1030000001
        },
        {
            "id": 1020000004,
            "type": 1,
            "kind": 4,
            "time": 60.0,
            "enemyId": 1030000001
        },
        {
            "id": 1020000005,
            "type": 1,
            "kind": 5,
            "time": 60.0,
            "enemyId": 1030000001
        },
        {
            "id": 1020000006,
            "type": 1,
            "kind": 6,
            "time": 60.0,
            "enemyId": 1030000001
        },
        {
            "id": 1020000007,
            "type": 1,
            "kind": 7,
            "time": 60.0,
            "enemyId": 1030000001
        },
        {
            "id": 1020000008,
            "type": 1,
            "kind": 8,
            "time": 60.0,
            "enemyId": 1030000001
        },
        {
            "id": 1020000009,
            "type": 1,
            "kind": 9,
            "time": 60.0,
            "enemyId": 1030000001
        },
        {
            "id": 1020000010,
            "type": 1,
            "kind": 10,
            "time": 90.0,
            "enemyId": 1030000007
        },
        {
            "id": 1020000011,
            "type": 1,
            "kind": 11,
            "time": 60.0,
            "enemyId": 1030000001
        },
        {
            "id": 1020000012,
            "type": 1,
            "kind": 12,
            "time": 60.0,
            "enemyId": 1030000001
        },
        {
            "id": 1020000013,
            "type": 1,
            "kind": 13,
            "time": 60.0,
            "enemyId": 1030000001
        },
        {
            "id": 1020000014,
            "type": 1,
            "kind": 14,
            "time": 60.0,
            "enemyId": 1030000001
        },
        {
            "id": 1020000015,
            "type": 1,
            "kind": 15,
            "time": 60.0,
            "enemyId": 1030000001
        },
        {
            "id": 1020000016,
            "type": 1,
            "kind": 16,
            "time": 60.0,
            "enemyId": 1030000001
        },
        {
            "id": 1020000017,
            "type": 1,
            "kind": 17,
            "time": 60.0,
            "enemyId": 1030000001
        },
        {
            "id": 1020000018,
            "type": 1,
            "kind": 18,
            "time": 60.0,
            "enemyId": 1030000001
        },
        {
            "id": 1020000019,
            "type": 1,
            "kind": 19,
            "time": 60.0,
            "enemyId": 1030000001
        },
        {
            "id": 1020000020,
            "type": 1,
            "kind": 20,
            "time": 90.0,
            "enemyId": 1030000007
        },
        {
            "id": 1020000021,
            "type": 1,
            "kind": 21,
            "time": 60.0,
            "enemyId": 1030000001
        },
        {
            "id": 1020000022,
            "type": 1,
            "kind": 22,
            "time": 60.0,
            "enemyId": 1030000001
        },
        {
            "id": 1020000023,
            "type": 1,
            "kind": 23,
            "time": 60.0,
            "enemyId": 1030000001
        },
        {
            "id": 1020000024,
            "type": 1,
            "kind": 24,
            "time": 60.0,
            "enemyId": 1030000001
        },
        {
            "id": 1020000025,
            "type": 1,
            "kind": 25,
            "time": 60.0,
            "enemyId": 1030000001
        },
        {
            "id": 1020000026,
            "type": 1,
            "kind": 26,
            "time": 60.0,
            "enemyId": 1030000001
        },
        {
            "id": 1020000027,
            "type": 1,
            "kind": 27,
            "time": 60.0,
            "enemyId": 1030000001
        },
        {
            "id": 1020000028,
            "type": 1,
            "kind": 28,
            "time": 60.0,
            "enemyId": 1030000001
        },
        {
            "id": 1020000029,
            "type": 1,
            "kind": 29,
            "time": 60.0,
            "enemyId": 1030000001
        },
        {
            "id": 1020000030,
            "type": 1,
            "kind": 30,
            "time": 90.0,
            "enemyId": 1030000007
        },
        {
            "id": 1020000031,
            "type": 1,
            "kind": 31,
            "time": 60.0,
            "enemyId": 1030000001
        },
        {
            "id": 1020000032,
            "type": 1,
            "kind": 32,
            "time": 60.0,
            "enemyId": 1030000001
        },
        {
            "id": 1020000033,
            "type": 1,
            "kind": 33,
            "time": 60.0,
            "enemyId": 1030000001
        },
        {
            "id": 1020000034,
            "type": 1,
            "kind": 34,
            "time": 60.0,
            "enemyId": 1030000001
        },
        {
            "id": 1020000035,
            "type": 1,
            "kind": 35,
            "time": 60.0,
            "enemyId": 1030000001
        },
        {
            "id": 1020000036,
            "type": 1,
            "kind": 36,
            "time": 60.0,
            "enemyId": 1030000001
        },
        {
            "id": 1020000037,
            "type": 1,
            "kind": 37,
            "time": 60.0,
            "enemyId": 1030000001
        },
        {
            "id": 1020000038,
            "type": 1,
            "kind": 38,
            "time": 60.0,
            "enemyId": 1030000001
        },
        {
            "id": 1020000039,
            "type": 1,
            "kind": 39,
            "time": 60.0,
            "enemyId": 1030000001
        },
        {
            "id": 1020000040,
            "type": 1,
            "kind": 40,
            "time": 90.0,
            "enemyId": 1030000007
        },
        {
            "id": 1020000041,
            "type": 1,
            "kind": 41,
            "time": 60.0,
            "enemyId": 1030000001
        },
        {
            "id": 1020000042,
            "type": 1,
            "kind": 42,
            "time": 60.0,
            "enemyId": 1030000001
        },
        {
            "id": 1020000043,
            "type": 1,
            "kind": 43,
            "time": 60.0,
            "enemyId": 1030000001
        },
        {
            "id": 1020000044,
            "type": 1,
            "kind": 44,
            "time": 60.0,
            "enemyId": 1030000001
        },
        {
            "id": 1020000045,
            "type": 1,
            "kind": 45,
            "time": 60.0,
            "enemyId": 1030000001
        },
        {
            "id": 1020000046,
            "type": 1,
            "kind": 46,
            "time": 60.0,
            "enemyId": 1030000001
        },
        {
            "id": 1020000047,
            "type": 1,
            "kind": 47,
            "time": 60.0,
            "enemyId": 1030000001
        },
        {
            "id": 1020000048,
            "type": 1,
            "kind": 48,
            "time": 60.0,
            "enemyId": 1030000001
        },
        {
            "id": 1020000049,
            "type": 1,
            "kind": 49,
            "time": 60.0,
            "enemyId": 1030000001
        },
        {
            "id": 1020000050,
            "type": 1,
            "kind": 50,
            "time": 120.0,
            "enemyId": 1030000013
        },
        {
            "id": 1020000051,
            "type": 1,
            "kind": 51,
            "time": 60.0,
            "enemyId": 1030000002
        },
        {
            "id": 1020000052,
            "type": 1,
            "kind": 52,
            "time": 60.0,
            "enemyId": 1030000002
        },
        {
            "id": 1020000053,
            "type": 1,
            "kind": 53,
            "time": 60.0,
            "enemyId": 1030000002
        },
        {
            "id": 1020000054,
            "type": 1,
            "kind": 54,
            "time": 60.0,
            "enemyId": 1030000002
        },
        {
            "id": 1020000055,
            "type": 1,
            "kind": 55,
            "time": 60.0,
            "enemyId": 1030000002
        },
        {
            "id": 1020000056,
            "type": 1,
            "kind": 56,
            "time": 60.0,
            "enemyId": 1030000002
        },
        {
            "id": 1020000057,
            "type": 1,
            "kind": 57,
            "time": 60.0,
            "enemyId": 1030000002
        },
        {
            "id": 1020000058,
            "type": 1,
            "kind": 58,
            "time": 60.0,
            "enemyId": 1030000002
        },
        {
            "id": 1020000059,
            "type": 1,
            "kind": 59,
            "time": 60.0,
            "enemyId": 1030000002
        },
        {
            "id": 1020000060,
            "type": 1,
            "kind": 60,
            "time": 90.0,
            "enemyId": 1030000008
        },
        {
            "id": 1020000061,
            "type": 1,
            "kind": 61,
            "time": 60.0,
            "enemyId": 1030000002
        },
        {
            "id": 1020000062,
            "type": 1,
            "kind": 62,
            "time": 60.0,
            "enemyId": 1030000002
        },
        {
            "id": 1020000063,
            "type": 1,
            "kind": 63,
            "time": 60.0,
            "enemyId": 1030000002
        },
        {
            "id": 1020000064,
            "type": 1,
            "kind": 64,
            "time": 60.0,
            "enemyId": 1030000002
        },
        {
            "id": 1020000065,
            "type": 1,
            "kind": 65,
            "time": 60.0,
            "enemyId": 1030000002
        },
        {
            "id": 1020000066,
            "type": 1,
            "kind": 66,
            "time": 60.0,
            "enemyId": 1030000002
        },
        {
            "id": 1020000067,
            "type": 1,
            "kind": 67,
            "time": 60.0,
            "enemyId": 1030000002
        },
        {
            "id": 1020000068,
            "type": 1,
            "kind": 68,
            "time": 60.0,
            "enemyId": 1030000002
        },
        {
            "id": 1020000069,
            "type": 1,
            "kind": 69,
            "time": 60.0,
            "enemyId": 1030000002
        },
        {
            "id": 1020000070,
            "type": 1,
            "kind": 70,
            "time": 90.0,
            "enemyId": 1030000008
        },
        {
            "id": 1020000071,
            "type": 1,
            "kind": 71,
            "time": 60.0,
            "enemyId": 1030000002
        },
        {
            "id": 1020000072,
            "type": 1,
            "kind": 72,
            "time": 60.0,
            "enemyId": 1030000002
        },
        {
            "id": 1020000073,
            "type": 1,
            "kind": 73,
            "time": 60.0,
            "enemyId": 1030000002
        },
        {
            "id": 1020000074,
            "type": 1,
            "kind": 74,
            "time": 60.0,
            "enemyId": 1030000002
        },
        {
            "id": 1020000075,
            "type": 1,
            "kind": 75,
            "time": 60.0,
            "enemyId": 1030000002
        },
        {
            "id": 1020000076,
            "type": 1,
            "kind": 76,
            "time": 60.0,
            "enemyId": 1030000002
        },
        {
            "id": 1020000077,
            "type": 1,
            "kind": 77,
            "time": 60.0,
            "enemyId": 1030000002
        },
        {
            "id": 1020000078,
            "type": 1,
            "kind": 78,
            "time": 60.0,
            "enemyId": 1030000002
        },
        {
            "id": 1020000079,
            "type": 1,
            "kind": 79,
            "time": 60.0,
            "enemyId": 1030000002
        },
        {
            "id": 1020000080,
            "type": 1,
            "kind": 80,
            "time": 90.0,
            "enemyId": 1030000008
        },
        {
            "id": 1020000081,
            "type": 1,
            "kind": 81,
            "time": 60.0,
            "enemyId": 1030000002
        },
        {
            "id": 1020000082,
            "type": 1,
            "kind": 82,
            "time": 60.0,
            "enemyId": 1030000002
        },
        {
            "id": 1020000083,
            "type": 1,
            "kind": 83,
            "time": 60.0,
            "enemyId": 1030000002
        },
        {
            "id": 1020000084,
            "type": 1,
            "kind": 84,
            "time": 60.0,
            "enemyId": 1030000002
        },
        {
            "id": 1020000085,
            "type": 1,
            "kind": 85,
            "time": 60.0,
            "enemyId": 1030000002
        },
        {
            "id": 1020000086,
            "type": 1,
            "kind": 86,
            "time": 60.0,
            "enemyId": 1030000002
        },
        {
            "id": 1020000087,
            "type": 1,
            "kind": 87,
            "time": 60.0,
            "enemyId": 1030000002
        },
        {
            "id": 1020000088,
            "type": 1,
            "kind": 88,
            "time": 60.0,
            "enemyId": 1030000002
        },
        {
            "id": 1020000089,
            "type": 1,
            "kind": 89,
            "time": 60.0,
            "enemyId": 1030000002
        },
        {
            "id": 1020000090,
            "type": 1,
            "kind": 90,
            "time": 90.0,
            "enemyId": 1030000008
        },
        {
            "id": 1020000091,
            "type": 1,
            "kind": 91,
            "time": 60.0,
            "enemyId": 1030000002
        },
        {
            "id": 1020000092,
            "type": 1,
            "kind": 92,
            "time": 60.0,
            "enemyId": 1030000002
        },
        {
            "id": 1020000093,
            "type": 1,
            "kind": 93,
            "time": 60.0,
            "enemyId": 1030000002
        },
        {
            "id": 1020000094,
            "type": 1,
            "kind": 94,
            "time": 60.0,
            "enemyId": 1030000002
        },
        {
            "id": 1020000095,
            "type": 1,
            "kind": 95,
            "time": 60.0,
            "enemyId": 1030000002
        },
        {
            "id": 1020000096,
            "type": 1,
            "kind": 96,
            "time": 60.0,
            "enemyId": 1030000002
        },
        {
            "id": 1020000097,
            "type": 1,
            "kind": 97,
            "time": 60.0,
            "enemyId": 1030000002
        },
        {
            "id": 1020000098,
            "type": 1,
            "kind": 98,
            "time": 60.0,
            "enemyId": 1030000002
        },
        {
            "id": 1020000099,
            "type": 1,
            "kind": 99,
            "time": 60.0,
            "enemyId": 1030000002
        },
        {
            "id": 1020000100,
            "type": 1,
            "kind": 100,
            "time": 120.0,
            "enemyId": 1030000013
        },
        {
            "id": 1020000101,
            "type": 2,
            "kind": 1,
            "time": 60.0,
            "enemyId": 1030000003
        },
        {
            "id": 1020000102,
            "type": 2,
            "kind": 2,
            "time": 60.0,
            "enemyId": 1030000003
        },
        {
            "id": 1020000103,
            "type": 2,
            "kind": 3,
            "time": 60.0,
            "enemyId": 1030000003
        },
        {
            "id": 1020000104,
            "type": 2,
            "kind": 4,
            "time": 60.0,
            "enemyId": 1030000003
        },
        {
            "id": 1020000105,
            "type": 2,
            "kind": 5,
            "time": 60.0,
            "enemyId": 1030000003
        },
        {
            "id": 1020000106,
            "type": 2,
            "kind": 6,
            "time": 60.0,
            "enemyId": 1030000003
        },
        {
            "id": 1020000107,
            "type": 2,
            "kind": 7,
            "time": 60.0,
            "enemyId": 1030000003
        },
        {
            "id": 1020000108,
            "type": 2,
            "kind": 8,
            "time": 60.0,
            "enemyId": 1030000003
        },
        {
            "id": 1020000109,
            "type": 2,
            "kind": 9,
            "time": 60.0,
            "enemyId": 1030000003
        },
        {
            "id": 1020000110,
            "type": 2,
            "kind": 10,
            "time": 90.0,
            "enemyId": 1030000009
        },
        {
            "id": 1020000111,
            "type": 2,
            "kind": 11,
            "time": 60.0,
            "enemyId": 1030000003
        },
        {
            "id": 1020000112,
            "type": 2,
            "kind": 12,
            "time": 60.0,
            "enemyId": 1030000003
        },
        {
            "id": 1020000113,
            "type": 2,
            "kind": 13,
            "time": 60.0,
            "enemyId": 1030000003
        },
        {
            "id": 1020000114,
            "type": 2,
            "kind": 14,
            "time": 60.0,
            "enemyId": 1030000003
        },
        {
            "id": 1020000115,
            "type": 2,
            "kind": 15,
            "time": 60.0,
            "enemyId": 1030000003
        },
        {
            "id": 1020000116,
            "type": 2,
            "kind": 16,
            "time": 60.0,
            "enemyId": 1030000003
        },
        {
            "id": 1020000117,
            "type": 2,
            "kind": 17,
            "time": 60.0,
            "enemyId": 1030000003
        },
        {
            "id": 1020000118,
            "type": 2,
            "kind": 18,
            "time": 60.0,
            "enemyId": 1030000003
        },
        {
            "id": 1020000119,
            "type": 2,
            "kind": 19,
            "time": 60.0,
            "enemyId": 1030000003
        },
        {
            "id": 1020000120,
            "type": 2,
            "kind": 20,
            "time": 90.0,
            "enemyId": 1030000009
        },
        {
            "id": 1020000121,
            "type": 2,
            "kind": 21,
            "time": 60.0,
            "enemyId": 1030000003
        },
        {
            "id": 1020000122,
            "type": 2,
            "kind": 22,
            "time": 60.0,
            "enemyId": 1030000003
        },
        {
            "id": 1020000123,
            "type": 2,
            "kind": 23,
            "time": 60.0,
            "enemyId": 1030000003
        },
        {
            "id": 1020000124,
            "type": 2,
            "kind": 24,
            "time": 60.0,
            "enemyId": 1030000003
        },
        {
            "id": 1020000125,
            "type": 2,
            "kind": 25,
            "time": 60.0,
            "enemyId": 1030000003
        },
        {
            "id": 1020000126,
            "type": 2,
            "kind": 26,
            "time": 60.0,
            "enemyId": 1030000003
        },
        {
            "id": 1020000127,
            "type": 2,
            "kind": 27,
            "time": 60.0,
            "enemyId": 1030000003
        },
        {
            "id": 1020000128,
            "type": 2,
            "kind": 28,
            "time": 60.0,
            "enemyId": 1030000003
        },
        {
            "id": 1020000129,
            "type": 2,
            "kind": 29,
            "time": 60.0,
            "enemyId": 1030000003
        },
        {
            "id": 1020000130,
            "type": 2,
            "kind": 30,
            "time": 90.0,
            "enemyId": 1030000009
        },
        {
            "id": 1020000131,
            "type": 2,
            "kind": 31,
            "time": 60.0,
            "enemyId": 1030000003
        },
        {
            "id": 1020000132,
            "type": 2,
            "kind": 32,
            "time": 60.0,
            "enemyId": 1030000003
        },
        {
            "id": 1020000133,
            "type": 2,
            "kind": 33,
            "time": 60.0,
            "enemyId": 1030000003
        },
        {
            "id": 1020000134,
            "type": 2,
            "kind": 34,
            "time": 60.0,
            "enemyId": 1030000003
        },
        {
            "id": 1020000135,
            "type": 2,
            "kind": 35,
            "time": 60.0,
            "enemyId": 1030000003
        },
        {
            "id": 1020000136,
            "type": 2,
            "kind": 36,
            "time": 60.0,
            "enemyId": 1030000003
        },
        {
            "id": 1020000137,
            "type": 2,
            "kind": 37,
            "time": 60.0,
            "enemyId": 1030000003
        },
        {
            "id": 1020000138,
            "type": 2,
            "kind": 38,
            "time": 60.0,
            "enemyId": 1030000003
        },
        {
            "id": 1020000139,
            "type": 2,
            "kind": 39,
            "time": 60.0,
            "enemyId": 1030000003
        },
        {
            "id": 1020000140,
            "type": 2,
            "kind": 40,
            "time": 90.0,
            "enemyId": 1030000009
        },
        {
            "id": 1020000141,
            "type": 2,
            "kind": 41,
            "time": 60.0,
            "enemyId": 1030000003
        },
        {
            "id": 1020000142,
            "type": 2,
            "kind": 42,
            "time": 60.0,
            "enemyId": 1030000003
        },
        {
            "id": 1020000143,
            "type": 2,
            "kind": 43,
            "time": 60.0,
            "enemyId": 1030000003
        },
        {
            "id": 1020000144,
            "type": 2,
            "kind": 44,
            "time": 60.0,
            "enemyId": 1030000003
        },
        {
            "id": 1020000145,
            "type": 2,
            "kind": 45,
            "time": 60.0,
            "enemyId": 1030000003
        },
        {
            "id": 1020000146,
            "type": 2,
            "kind": 46,
            "time": 60.0,
            "enemyId": 1030000003
        },
        {
            "id": 1020000147,
            "type": 2,
            "kind": 47,
            "time": 60.0,
            "enemyId": 1030000003
        },
        {
            "id": 1020000148,
            "type": 2,
            "kind": 48,
            "time": 60.0,
            "enemyId": 1030000003
        },
        {
            "id": 1020000149,
            "type": 2,
            "kind": 49,
            "time": 60.0,
            "enemyId": 1030000003
        },
        {
            "id": 1020000150,
            "type": 2,
            "kind": 50,
            "time": 120.0,
            "enemyId": 1030000014
        },
        {
            "id": 1020000151,
            "type": 2,
            "kind": 51,
            "time": 60.0,
            "enemyId": 1030000004
        },
        {
            "id": 1020000152,
            "type": 2,
            "kind": 52,
            "time": 60.0,
            "enemyId": 1030000004
        },
        {
            "id": 1020000153,
            "type": 2,
            "kind": 53,
            "time": 60.0,
            "enemyId": 1030000004
        },
        {
            "id": 1020000154,
            "type": 2,
            "kind": 54,
            "time": 60.0,
            "enemyId": 1030000004
        },
        {
            "id": 1020000155,
            "type": 2,
            "kind": 55,
            "time": 60.0,
            "enemyId": 1030000004
        },
        {
            "id": 1020000156,
            "type": 2,
            "kind": 56,
            "time": 60.0,
            "enemyId": 1030000004
        },
        {
            "id": 1020000157,
            "type": 2,
            "kind": 57,
            "time": 60.0,
            "enemyId": 1030000004
        },
        {
            "id": 1020000158,
            "type": 2,
            "kind": 58,
            "time": 60.0,
            "enemyId": 1030000004
        },
        {
            "id": 1020000159,
            "type": 2,
            "kind": 59,
            "time": 60.0,
            "enemyId": 1030000004
        },
        {
            "id": 1020000160,
            "type": 2,
            "kind": 60,
            "time": 90.0,
            "enemyId": 1030000010
        },
        {
            "id": 1020000161,
            "type": 2,
            "kind": 61,
            "time": 60.0,
            "enemyId": 1030000004
        },
        {
            "id": 1020000162,
            "type": 2,
            "kind": 62,
            "time": 60.0,
            "enemyId": 1030000004
        },
        {
            "id": 1020000163,
            "type": 2,
            "kind": 63,
            "time": 60.0,
            "enemyId": 1030000004
        },
        {
            "id": 1020000164,
            "type": 2,
            "kind": 64,
            "time": 60.0,
            "enemyId": 1030000004
        },
        {
            "id": 1020000165,
            "type": 2,
            "kind": 65,
            "time": 60.0,
            "enemyId": 1030000004
        },
        {
            "id": 1020000166,
            "type": 2,
            "kind": 66,
            "time": 60.0,
            "enemyId": 1030000004
        },
        {
            "id": 1020000167,
            "type": 2,
            "kind": 67,
            "time": 60.0,
            "enemyId": 1030000004
        },
        {
            "id": 1020000168,
            "type": 2,
            "kind": 68,
            "time": 60.0,
            "enemyId": 1030000004
        },
        {
            "id": 1020000169,
            "type": 2,
            "kind": 69,
            "time": 60.0,
            "enemyId": 1030000004
        },
        {
            "id": 1020000170,
            "type": 2,
            "kind": 70,
            "time": 90.0,
            "enemyId": 1030000010
        },
        {
            "id": 1020000171,
            "type": 2,
            "kind": 71,
            "time": 60.0,
            "enemyId": 1030000004
        },
        {
            "id": 1020000172,
            "type": 2,
            "kind": 72,
            "time": 60.0,
            "enemyId": 1030000004
        },
        {
            "id": 1020000173,
            "type": 2,
            "kind": 73,
            "time": 60.0,
            "enemyId": 1030000004
        },
        {
            "id": 1020000174,
            "type": 2,
            "kind": 74,
            "time": 60.0,
            "enemyId": 1030000004
        },
        {
            "id": 1020000175,
            "type": 2,
            "kind": 75,
            "time": 60.0,
            "enemyId": 1030000004
        },
        {
            "id": 1020000176,
            "type": 2,
            "kind": 76,
            "time": 60.0,
            "enemyId": 1030000004
        },
        {
            "id": 1020000177,
            "type": 2,
            "kind": 77,
            "time": 60.0,
            "enemyId": 1030000004
        },
        {
            "id": 1020000178,
            "type": 2,
            "kind": 78,
            "time": 60.0,
            "enemyId": 1030000004
        },
        {
            "id": 1020000179,
            "type": 2,
            "kind": 79,
            "time": 60.0,
            "enemyId": 1030000004
        },
        {
            "id": 1020000180,
            "type": 2,
            "kind": 80,
            "time": 90.0,
            "enemyId": 1030000010
        },
        {
            "id": 1020000181,
            "type": 2,
            "kind": 81,
            "time": 60.0,
            "enemyId": 1030000004
        },
        {
            "id": 1020000182,
            "type": 2,
            "kind": 82,
            "time": 60.0,
            "enemyId": 1030000004
        },
        {
            "id": 1020000183,
            "type": 2,
            "kind": 83,
            "time": 60.0,
            "enemyId": 1030000004
        },
        {
            "id": 1020000184,
            "type": 2,
            "kind": 84,
            "time": 60.0,
            "enemyId": 1030000004
        },
        {
            "id": 1020000185,
            "type": 2,
            "kind": 85,
            "time": 60.0,
            "enemyId": 1030000004
        },
        {
            "id": 1020000186,
            "type": 2,
            "kind": 86,
            "time": 60.0,
            "enemyId": 1030000004
        },
        {
            "id": 1020000187,
            "type": 2,
            "kind": 87,
            "time": 60.0,
            "enemyId": 1030000004
        },
        {
            "id": 1020000188,
            "type": 2,
            "kind": 88,
            "time": 60.0,
            "enemyId": 1030000004
        },
        {
            "id": 1020000189,
            "type": 2,
            "kind": 89,
            "time": 60.0,
            "enemyId": 1030000004
        },
        {
            "id": 1020000190,
            "type": 2,
            "kind": 90,
            "time": 90.0,
            "enemyId": 1030000010
        },
        {
            "id": 1020000191,
            "type": 2,
            "kind": 91,
            "time": 60.0,
            "enemyId": 1030000004
        },
        {
            "id": 1020000192,
            "type": 2,
            "kind": 92,
            "time": 60.0,
            "enemyId": 1030000004
        },
        {
            "id": 1020000193,
            "type": 2,
            "kind": 93,
            "time": 60.0,
            "enemyId": 1030000004
        },
        {
            "id": 1020000194,
            "type": 2,
            "kind": 94,
            "time": 60.0,
            "enemyId": 1030000004
        },
        {
            "id": 1020000195,
            "type": 2,
            "kind": 95,
            "time": 60.0,
            "enemyId": 1030000004
        },
        {
            "id": 1020000196,
            "type": 2,
            "kind": 96,
            "time": 60.0,
            "enemyId": 1030000004
        },
        {
            "id": 1020000197,
            "type": 2,
            "kind": 97,
            "time": 60.0,
            "enemyId": 1030000004
        },
        {
            "id": 1020000198,
            "type": 2,
            "kind": 98,
            "time": 60.0,
            "enemyId": 1030000004
        },
        {
            "id": 1020000199,
            "type": 2,
            "kind": 99,
            "time": 60.0,
            "enemyId": 1030000004
        },
        {
            "id": 1020000200,
            "type": 2,
            "kind": 100,
            "time": 120.0,
            "enemyId": 1030000014
        },
        {
            "id": 1020000201,
            "type": 3,
            "kind": 1,
            "time": 60.0,
            "enemyId": 1030000005
        },
        {
            "id": 1020000202,
            "type": 3,
            "kind": 2,
            "time": 60.0,
            "enemyId": 1030000005
        },
        {
            "id": 1020000203,
            "type": 3,
            "kind": 3,
            "time": 60.0,
            "enemyId": 1030000005
        },
        {
            "id": 1020000204,
            "type": 3,
            "kind": 4,
            "time": 60.0,
            "enemyId": 1030000005
        },
        {
            "id": 1020000205,
            "type": 3,
            "kind": 5,
            "time": 60.0,
            "enemyId": 1030000005
        },
        {
            "id": 1020000206,
            "type": 3,
            "kind": 6,
            "time": 60.0,
            "enemyId": 1030000005
        },
        {
            "id": 1020000207,
            "type": 3,
            "kind": 7,
            "time": 60.0,
            "enemyId": 1030000005
        },
        {
            "id": 1020000208,
            "type": 3,
            "kind": 8,
            "time": 60.0,
            "enemyId": 1030000005
        },
        {
            "id": 1020000209,
            "type": 3,
            "kind": 9,
            "time": 60.0,
            "enemyId": 1030000005
        },
        {
            "id": 1020000210,
            "type": 3,
            "kind": 10,
            "time": 90.0,
            "enemyId": 1030000011
        },
        {
            "id": 1020000211,
            "type": 3,
            "kind": 11,
            "time": 60.0,
            "enemyId": 1030000005
        },
        {
            "id": 1020000212,
            "type": 3,
            "kind": 12,
            "time": 60.0,
            "enemyId": 1030000005
        },
        {
            "id": 1020000213,
            "type": 3,
            "kind": 13,
            "time": 60.0,
            "enemyId": 1030000005
        },
        {
            "id": 1020000214,
            "type": 3,
            "kind": 14,
            "time": 60.0,
            "enemyId": 1030000005
        },
        {
            "id": 1020000215,
            "type": 3,
            "kind": 15,
            "time": 60.0,
            "enemyId": 1030000005
        },
        {
            "id": 1020000216,
            "type": 3,
            "kind": 16,
            "time": 60.0,
            "enemyId": 1030000005
        },
        {
            "id": 1020000217,
            "type": 3,
            "kind": 17,
            "time": 60.0,
            "enemyId": 1030000005
        },
        {
            "id": 1020000218,
            "type": 3,
            "kind": 18,
            "time": 60.0,
            "enemyId": 1030000005
        },
        {
            "id": 1020000219,
            "type": 3,
            "kind": 19,
            "time": 60.0,
            "enemyId": 1030000005
        },
        {
            "id": 1020000220,
            "type": 3,
            "kind": 20,
            "time": 90.0,
            "enemyId": 1030000011
        },
        {
            "id": 1020000221,
            "type": 3,
            "kind": 21,
            "time": 60.0,
            "enemyId": 1030000005
        },
        {
            "id": 1020000222,
            "type": 3,
            "kind": 22,
            "time": 60.0,
            "enemyId": 1030000005
        },
        {
            "id": 1020000223,
            "type": 3,
            "kind": 23,
            "time": 60.0,
            "enemyId": 1030000005
        },
        {
            "id": 1020000224,
            "type": 3,
            "kind": 24,
            "time": 60.0,
            "enemyId": 1030000005
        },
        {
            "id": 1020000225,
            "type": 3,
            "kind": 25,
            "time": 60.0,
            "enemyId": 1030000005
        },
        {
            "id": 1020000226,
            "type": 3,
            "kind": 26,
            "time": 60.0,
            "enemyId": 1030000005
        },
        {
            "id": 1020000227,
            "type": 3,
            "kind": 27,
            "time": 60.0,
            "enemyId": 1030000005
        },
        {
            "id": 1020000228,
            "type": 3,
            "kind": 28,
            "time": 60.0,
            "enemyId": 1030000005
        },
        {
            "id": 1020000229,
            "type": 3,
            "kind": 29,
            "time": 60.0,
            "enemyId": 1030000005
        },
        {
            "id": 1020000230,
            "type": 3,
            "kind": 30,
            "time": 90.0,
            "enemyId": 1030000011
        },
        {
            "id": 1020000231,
            "type": 3,
            "kind": 31,
            "time": 60.0,
            "enemyId": 1030000005
        },
        {
            "id": 1020000232,
            "type": 3,
            "kind": 32,
            "time": 60.0,
            "enemyId": 1030000005
        },
        {
            "id": 1020000233,
            "type": 3,
            "kind": 33,
            "time": 60.0,
            "enemyId": 1030000005
        },
        {
            "id": 1020000234,
            "type": 3,
            "kind": 34,
            "time": 60.0,
            "enemyId": 1030000005
        },
        {
            "id": 1020000235,
            "type": 3,
            "kind": 35,
            "time": 60.0,
            "enemyId": 1030000005
        },
        {
            "id": 1020000236,
            "type": 3,
            "kind": 36,
            "time": 60.0,
            "enemyId": 1030000005
        },
        {
            "id": 1020000237,
            "type": 3,
            "kind": 37,
            "time": 60.0,
            "enemyId": 1030000005
        },
        {
            "id": 1020000238,
            "type": 3,
            "kind": 38,
            "time": 60.0,
            "enemyId": 1030000005
        },
        {
            "id": 1020000239,
            "type": 3,
            "kind": 39,
            "time": 60.0,
            "enemyId": 1030000005
        },
        {
            "id": 1020000240,
            "type": 3,
            "kind": 40,
            "time": 90.0,
            "enemyId": 1030000011
        },
        {
            "id": 1020000241,
            "type": 3,
            "kind": 41,
            "time": 60.0,
            "enemyId": 1030000005
        },
        {
            "id": 1020000242,
            "type": 3,
            "kind": 42,
            "time": 60.0,
            "enemyId": 1030000005
        },
        {
            "id": 1020000243,
            "type": 3,
            "kind": 43,
            "time": 60.0,
            "enemyId": 1030000005
        },
        {
            "id": 1020000244,
            "type": 3,
            "kind": 44,
            "time": 60.0,
            "enemyId": 1030000005
        },
        {
            "id": 1020000245,
            "type": 3,
            "kind": 45,
            "time": 60.0,
            "enemyId": 1030000005
        },
        {
            "id": 1020000246,
            "type": 3,
            "kind": 46,
            "time": 60.0,
            "enemyId": 1030000005
        },
        {
            "id": 1020000247,
            "type": 3,
            "kind": 47,
            "time": 60.0,
            "enemyId": 1030000005
        },
        {
            "id": 1020000248,
            "type": 3,
            "kind": 48,
            "time": 60.0,
            "enemyId": 1030000005
        },
        {
            "id": 1020000249,
            "type": 3,
            "kind": 49,
            "time": 60.0,
            "enemyId": 1030000005
        },
        {
            "id": 1020000250,
            "type": 3,
            "kind": 50,
            "time": 120.0,
            "enemyId": 1030000015
        },
        {
            "id": 1020000251,
            "type": 3,
            "kind": 51,
            "time": 60.0,
            "enemyId": 1030000006
        },
        {
            "id": 1020000252,
            "type": 3,
            "kind": 52,
            "time": 60.0,
            "enemyId": 1030000006
        },
        {
            "id": 1020000253,
            "type": 3,
            "kind": 53,
            "time": 60.0,
            "enemyId": 1030000006
        },
        {
            "id": 1020000254,
            "type": 3,
            "kind": 54,
            "time": 60.0,
            "enemyId": 1030000006
        },
        {
            "id": 1020000255,
            "type": 3,
            "kind": 55,
            "time": 60.0,
            "enemyId": 1030000006
        },
        {
            "id": 1020000256,
            "type": 3,
            "kind": 56,
            "time": 60.0,
            "enemyId": 1030000006
        },
        {
            "id": 1020000257,
            "type": 3,
            "kind": 57,
            "time": 60.0,
            "enemyId": 1030000006
        },
        {
            "id": 1020000258,
            "type": 3,
            "kind": 58,
            "time": 60.0,
            "enemyId": 1030000006
        },
        {
            "id": 1020000259,
            "type": 3,
            "kind": 59,
            "time": 60.0,
            "enemyId": 1030000006
        },
        {
            "id": 1020000260,
            "type": 3,
            "kind": 60,
            "time": 90.0,
            "enemyId": 1030000012
        },
        {
            "id": 1020000261,
            "type": 3,
            "kind": 61,
            "time": 60.0,
            "enemyId": 1030000006
        },
        {
            "id": 1020000262,
            "type": 3,
            "kind": 62,
            "time": 60.0,
            "enemyId": 1030000006
        },
        {
            "id": 1020000263,
            "type": 3,
            "kind": 63,
            "time": 60.0,
            "enemyId": 1030000006
        },
        {
            "id": 1020000264,
            "type": 3,
            "kind": 64,
            "time": 60.0,
            "enemyId": 1030000006
        },
        {
            "id": 1020000265,
            "type": 3,
            "kind": 65,
            "time": 60.0,
            "enemyId": 1030000006
        },
        {
            "id": 1020000266,
            "type": 3,
            "kind": 66,
            "time": 60.0,
            "enemyId": 1030000006
        },
        {
            "id": 1020000267,
            "type": 3,
            "kind": 67,
            "time": 60.0,
            "enemyId": 1030000006
        },
        {
            "id": 1020000268,
            "type": 3,
            "kind": 68,
            "time": 60.0,
            "enemyId": 1030000006
        },
        {
            "id": 1020000269,
            "type": 3,
            "kind": 69,
            "time": 60.0,
            "enemyId": 1030000006
        },
        {
            "id": 1020000270,
            "type": 3,
            "kind": 70,
            "time": 90.0,
            "enemyId": 1030000012
        },
        {
            "id": 1020000271,
            "type": 3,
            "kind": 71,
            "time": 60.0,
            "enemyId": 1030000006
        },
        {
            "id": 1020000272,
            "type": 3,
            "kind": 72,
            "time": 60.0,
            "enemyId": 1030000006
        },
        {
            "id": 1020000273,
            "type": 3,
            "kind": 73,
            "time": 60.0,
            "enemyId": 1030000006
        },
        {
            "id": 1020000274,
            "type": 3,
            "kind": 74,
            "time": 60.0,
            "enemyId": 1030000006
        },
        {
            "id": 1020000275,
            "type": 3,
            "kind": 75,
            "time": 60.0,
            "enemyId": 1030000006
        },
        {
            "id": 1020000276,
            "type": 3,
            "kind": 76,
            "time": 60.0,
            "enemyId": 1030000006
        },
        {
            "id": 1020000277,
            "type": 3,
            "kind": 77,
            "time": 60.0,
            "enemyId": 1030000006
        },
        {
            "id": 1020000278,
            "type": 3,
            "kind": 78,
            "time": 60.0,
            "enemyId": 1030000006
        },
        {
            "id": 1020000279,
            "type": 3,
            "kind": 79,
            "time": 60.0,
            "enemyId": 1030000006
        },
        {
            "id": 1020000280,
            "type": 3,
            "kind": 80,
            "time": 90.0,
            "enemyId": 1030000012
        },
        {
            "id": 1020000281,
            "type": 3,
            "kind": 81,
            "time": 60.0,
            "enemyId": 1030000006
        },
        {
            "id": 1020000282,
            "type": 3,
            "kind": 82,
            "time": 60.0,
            "enemyId": 1030000006
        },
        {
            "id": 1020000283,
            "type": 3,
            "kind": 83,
            "time": 60.0,
            "enemyId": 1030000006
        },
        {
            "id": 1020000284,
            "type": 3,
            "kind": 84,
            "time": 60.0,
            "enemyId": 1030000006
        },
        {
            "id": 1020000285,
            "type": 3,
            "kind": 85,
            "time": 60.0,
            "enemyId": 1030000006
        },
        {
            "id": 1020000286,
            "type": 3,
            "kind": 86,
            "time": 60.0,
            "enemyId": 1030000006
        },
        {
            "id": 1020000287,
            "type": 3,
            "kind": 87,
            "time": 60.0,
            "enemyId": 1030000006
        },
        {
            "id": 1020000288,
            "type": 3,
            "kind": 88,
            "time": 60.0,
            "enemyId": 1030000006
        },
        {
            "id": 1020000289,
            "type": 3,
            "kind": 89,
            "time": 60.0,
            "enemyId": 1030000006
        },
        {
            "id": 1020000290,
            "type": 3,
            "kind": 90,
            "time": 90.0,
            "enemyId": 1030000012
        },
        {
            "id": 1020000291,
            "type": 3,
            "kind": 91,
            "time": 60.0,
            "enemyId": 1030000006
        },
        {
            "id": 1020000292,
            "type": 3,
            "kind": 92,
            "time": 60.0,
            "enemyId": 1030000006
        },
        {
            "id": 1020000293,
            "type": 3,
            "kind": 93,
            "time": 60.0,
            "enemyId": 1030000006
        },
        {
            "id": 1020000294,
            "type": 3,
            "kind": 94,
            "time": 60.0,
            "enemyId": 1030000006
        },
        {
            "id": 1020000295,
            "type": 3,
            "kind": 95,
            "time": 60.0,
            "enemyId": 1030000006
        },
        {
            "id": 1020000296,
            "type": 3,
            "kind": 96,
            "time": 60.0,
            "enemyId": 1030000006
        },
        {
            "id": 1020000297,
            "type": 3,
            "kind": 97,
            "time": 60.0,
            "enemyId": 1030000006
        },
        {
            "id": 1020000298,
            "type": 3,
            "kind": 98,
            "time": 60.0,
            "enemyId": 1030000006
        },
        {
            "id": 1020000299,
            "type": 3,
            "kind": 99,
            "time": 60.0,
            "enemyId": 1030000006
        },
        {
            "id": 1020000300,
            "type": 3,
            "kind": 100,
            "time": 120.0,
            "enemyId": 1030000015
        }
    ]
}